dump.vcd
$date
	Mon Jul 14 10:40:59 2025
$end

$version
	Synopsys VCS version U-2023.03-SP2_Full64
$end

$timescale
	1ns
$end

$comment Csum: 1 1164ad1198cdcfc6 $end


$scope module $unit $end
$upscope $end


$scope module fifo_pkg $end
$upscope $end


$scope module top $end
$var reg 1 ! clk $end
$var reg 1 " rst_n $end

$scope begin unnamed$$_vcs_3 $end
$upscope $end


$scope begin unnamed$$_vcs_0 $end
$upscope $end


$scope begin unnamed$$_vcs_1 $end
$upscope $end


$scope begin unnamed$$_vcs_2 $end
$upscope $end


$scope module fifo_if_inst $end
$var reg 1 # clk $end
$var reg 1 $ rst_n $end
$var reg 1 % w_en $end
$var reg 1 & r_en $end
$var reg 8 ' data_in [7:0] $end
$var reg 8 ( data_out [7:0] $end
$var reg 1 ) full $end
$var reg 1 * empty $end
$upscope $end


$scope module dut $end
$var wire 1 + clk $end
$var wire 1 , rst_n $end
$var wire 1 - w_en $end
$var wire 1 . r_en $end
$var wire 8 / data_in [7:0] $end
$var reg 8 0 data_out [7:0] $end
$var wire 1 1 full $end
$var wire 1 2 empty $end
$var reg 3 3 w_ptr [2:0] $end
$var reg 3 4 r_ptr [2:0] $end
$upscope $end

$upscope $end


$scope module uvm_pkg $end
$var time 64 5 setting_offset $end
$var reg 32 6 uvm_global_random_seed [31:0] $end
$var reg 32 7 UVM_UNBOUNDED_CONNECTIONS [31:0] $end
$var reg 1 8 uvm_start_uvm_declarations $end
$var reg 32 9 setting_verbosity [31:0] $end
$var reg 1 : is_verdi_set_verbosity_called $end
$upscope $end

$enddefinitions $end

#0
$dumpvars
0:
18
bxxxxxxxxxxxxxxxxxxxxxxxxxxxxxxxxxxxxxxxxxxxxxxxxxxxxxxxxxxxxxxxx 5
b11111111111111111111111111111111 7
b00000000000000000000000000000000 9
b01000010000001111100110001000111 6
0!
0"
bxxxxxxxx (
bxxxxxxxx '
bxxxxxxxx 0
bxxx 4
bxxx 3
0,
bxxxxxxxx /
x2
x1
x.
x-
0#
0$
0+
x*
x)
x&
x%
$end
#5
1!
1+
1#
b000 3
01
0)
12
1*
b000 4
b00000000 0
b00000000 (
#10
0!
0+
0#
#15
1!
1+
1#
#20
1"
1$
1,
0!
0+
0#
#25
1!
1+
1#
1%
1-
0&
0.
b01010111 '
b01010111 /
#30
0!
0+
0#
#35
1!
1+
1#
b001 3
02
0*
0%
0-
#40
0!
0+
0#
#45
1!
1+
1#
1%
1-
b00010011 '
b00010011 /
#50
0!
0+
0#
#55
1!
1+
1#
b010 3
0%
0-
#60
0!
0+
0#
#65
1!
1+
1#
1%
1-
b00101111 '
b00101111 /
#70
0!
0+
0#
#75
1!
1+
1#
b011 3
0%
0-
#80
0!
0+
0#
#85
1!
1+
1#
1%
1-
b00100011 '
b00100011 /
#90
0!
0+
0#
#95
1!
1+
1#
b100 3
0%
0-
#100
0!
0+
0#
#105
1!
1+
1#
1%
1-
b11111101 '
b11111101 /
#110
0!
0+
0#
#115
1!
1+
1#
b101 3
0%
0-
#120
0!
0+
0#
#125
1!
1+
1#
1%
1-
b00100110 '
b00100110 /
#130
0!
0+
0#
#135
1!
1+
1#
b110 3
0%
0-
#140
0!
0+
0#
#145
1!
1+
1#
1%
1-
b00100100 '
b00100100 /
#150
0!
0+
0#
#155
1!
1+
1#
b111 3
11
1)
0%
0-
#160
0!
0+
0#
#165
1!
1+
1#
1%
1-
b01010111 '
b01010111 /
#170
0!
0+
0#
#175
1!
1+
1#
0%
0-
#180
0!
0+
0#
#185
1!
1+
1#
1%
1-
b00100001 '
b00100001 /
#190
0!
0+
0#
#195
1!
1+
1#
0%
0-
#200
0!
0+
0#
#205
1!
1+
1#
1%
1-
b10111110 '
b10111110 /
#210
0!
0+
0#
#215
1!
1+
1#
0%
0-
#220
0!
0+
0#
#225
1!
1+
1#
1&
1.
#230
0!
0+
0#
#235
1!
1+
1#
b01010111 0
b01010111 (
b001 4
01
0)
0&
0.
#240
0!
0+
0#
#245
1!
1+
1#
1&
1.
#250
0!
0+
0#
#255
1!
1+
1#
b00010011 0
b00010011 (
b010 4
0&
0.
#260
0!
0+
0#
#265
1!
1+
1#
1&
1.
#270
0!
0+
0#
#275
1!
1+
1#
b00101111 0
b00101111 (
b011 4
0&
0.
#280
0!
0+
0#
#285
1!
1+
1#
1&
1.
#290
0!
0+
0#
#295
1!
1+
1#
b00100011 0
b00100011 (
b100 4
0&
0.
#300
0!
0+
0#
#305
1!
1+
1#
1&
1.
#310
0!
0+
0#
#315
1!
1+
1#
b11111101 0
b11111101 (
b101 4
0&
0.
#320
0!
0+
0#
#325
1!
1+
1#
1&
1.
#330
0!
0+
0#
#335
1!
1+
1#
b00100110 0
b00100110 (
b110 4
0&
0.
#340
0!
0+
0#
#345
1!
1+
1#
1&
1.
#350
0!
0+
0#
#355
1!
1+
1#
b00100100 0
b00100100 (
b111 4
12
1*
0&
0.
#360
0!
0+
0#
#365
1!
1+
1#
1&
1.
#370
0!
0+
0#
#375
1!
1+
1#
0&
0.
#380
0!
0+
0#
#385
1!
1+
1#
1&
1.
#390
0!
0+
0#
#395
1!
1+
1#
0&
0.
#400
0!
0+
0#
#405
1!
1+
1#
1&
1.
#410
0!
0+
0#
#415
1!
1+
1#
0&
0.
